globarAnalysisV2
…
## $in_barData_atlantic_but_not_in_csv
## [1] "keys-mki1" "keys-mki2" "keys-mko1" "keys-mko2" "keys-uki2" "keys-uki3"
## 
## $in_csv_but_not_in_barData_atlantic
## [1] "keys-lki" "keys-lko" "keys-mki" "keys-mko" "keys-uki"

1.0.9 Add in skeletal
source info

## Non-missing skeletalSource: 809

## # A tibble: 108 × 1
##    tagNum
##     <dbl>
##  1   2178
##  2   2179
##  3   2180
##  4   2181
##  5   2182
##  6   2183
##  7   2184
##  8   6455
##  9   6501
## 10   6502
## 11   6503
## 12   6504
## 13   6505
## 14   6506
## 15   6507
## 16   6508
## 17   6509
## 18   6510
## 19   6511
## 20   6512
## # ℹ 88 more rows
…
28.54370

40.97039

0.1838328

0.0676266

0.1095982

2.4.2 AragSatState by
loc2

## # A tibble: 21 × 9
##    basin  loc1  loc2  n_bottle mean_AragSatState sd_AragSatState se_AragSatState
##    <chr>  <chr> <chr>    <dbl>             <dbl>           <dbl>           <dbl>
##  1 atlan… cari… puer…      194              3.71           0.275          0.0197
##  2 atlan… cari… sain…      165              3.75           0.146          0.0114
##  3 atlan… cari… sain…       99              3.75           0.195          0.0196
##  4 atlan… cari… sain…      120              3.80           0.173          0.0158
##  5 atlan… flor… dryT…      199              3.75           0.192          0.0136
##  6 atlan… flor… keys      1160              3.66           0.404          0.0119
##  7 atlan… flow… flow…       38              3.92           0.137          0.0223
##  8 pacif… mari… guam        65              3.61           0.154          0.0191
##  9 pacif… mari… maug         4              3.55           0.185          0.0925
## 10 pacif… mari… pagan       26              3.72           0.106          0.0208
## # ℹ 11 more rows
## # ℹ 2 more variables: min_AragSatState <dbl>, max_AragSatState <dbl>
…
